<svg width="221" height="31" viewBox="0 0 221 31" fill="none" xmlns="http://www.w3.org/2000/svg">
<path d="M0.425938 24V3H8.97594C10.4359 3 11.8059 3.28 13.0859 3.84C14.3859 4.38 15.5059 5.12 16.4459 6.06C17.4059 7 18.1559 8.12 18.6959 9.42C19.2559 10.7 19.5359 12.08 19.5359 13.56C19.5359 15 19.2559 16.36 18.6959 17.64C18.1559 18.92 17.4059 20.03 16.4459 20.97C15.5059 21.91 14.3859 22.65 13.0859 23.19C11.8059 23.73 10.4359 24 8.97594 24H0.425938ZM8.97594 7.41H5.58594V19.59H8.97594C9.69594 19.59 10.3759 19.44 11.0159 19.14C11.6559 18.82 12.2059 18.39 12.6659 17.85C13.1459 17.31 13.5159 16.67 13.7759 15.93C14.0559 15.19 14.1959 14.4 14.1959 13.56C14.1959 12.7 14.0559 11.9 13.7759 11.16C13.5159 10.4 13.1459 9.75 12.6659 9.21C12.2059 8.65 11.6559 8.21 11.0159 7.89C10.3759 7.57 9.69594 7.41 8.97594 7.41ZM36.7489 21.81C35.7489 22.69 34.7389 23.33 33.7189 23.73C32.6989 24.11 31.5389 24.3 30.2389 24.3C29.0989 24.3 28.0289 24.1 27.0289 23.7C26.0489 23.28 25.1889 22.71 24.4489 21.99C23.7089 21.27 23.1289 20.42 22.7089 19.44C22.2889 18.46 22.0789 17.41 22.0789 16.29C22.0789 15.15 22.2789 14.09 22.6789 13.11C23.0789 12.13 23.6189 11.28 24.2989 10.56C24.9989 9.84 25.8289 9.28 26.7889 8.88C27.7489 8.46 28.7789 8.25 29.8789 8.25C30.9989 8.25 32.0189 8.46 32.9389 8.88C33.8789 9.28 34.6789 9.84 35.3389 10.56C36.0189 11.28 36.5489 12.15 36.9289 13.17C37.3089 14.17 37.4989 15.27 37.4989 16.47V17.52H26.8489C27.0689 18.38 27.5089 19.08 28.1689 19.62C28.8289 20.16 29.5989 20.43 30.4789 20.43C31.1189 20.43 31.6989 20.32 32.2189 20.1C32.7589 19.88 33.1989 19.56 33.5389 19.14L36.7489 21.81ZM29.8489 12.03C29.0889 12.03 28.4489 12.27 27.9289 12.75C27.4089 13.23 27.0489 13.9 26.8489 14.76H32.9989C32.7989 13.92 32.4189 13.26 31.8589 12.78C31.2989 12.28 30.6289 12.03 29.8489 12.03ZM39.4093 22.41L41.5393 19.17C42.6393 19.75 43.5593 20.16 44.2993 20.4C45.0393 20.62 45.7793 20.73 46.5193 20.73C47.1993 20.73 47.7393 20.62 48.1393 20.4C48.5393 20.16 48.7393 19.85 48.7393 19.47C48.7393 19.17 48.6193 18.93 48.3793 18.75C48.1593 18.57 47.7993 18.44 47.2993 18.36L44.3293 17.82C42.8293 17.54 41.6893 17.02 40.9093 16.26C40.1493 15.5 39.7693 14.52 39.7693 13.32C39.7693 11.74 40.3393 10.5 41.4793 9.6C42.6393 8.7 44.2293 8.25 46.2493 8.25C47.3293 8.25 48.3993 8.4 49.4593 8.7C50.5193 9 51.5493 9.44 52.5493 10.02L50.3293 13.11C49.5493 12.67 48.7893 12.34 48.0493 12.12C47.3293 11.9 46.6093 11.79 45.8893 11.79C45.3093 11.79 44.8493 11.89 44.5093 12.09C44.1893 12.27 44.0293 12.53 44.0293 12.87C44.0293 13.19 44.1393 13.43 44.3593 13.59C44.5993 13.75 45.0193 13.88 45.6193 13.98L48.5293 14.52C50.0493 14.8 51.2093 15.33 52.0093 16.11C52.8093 16.87 53.1993 17.83 53.1793 18.99C53.1793 19.75 53.0093 20.46 52.6693 21.12C52.3493 21.76 51.8893 22.32 51.2893 22.8C50.6893 23.26 49.9793 23.63 49.1593 23.91C48.3393 24.17 47.4593 24.3 46.5193 24.3C45.1193 24.3 43.8093 24.14 42.5893 23.82C41.3693 23.5 40.3093 23.03 39.4093 22.41ZM58.4216 6.12C57.6616 6.12 57.0116 5.86 56.4716 5.34C55.9516 4.8 55.6916 4.16 55.6916 3.42C55.6916 2.68 55.9616 2.04 56.5016 1.5C57.0416 0.959999 57.6816 0.69 58.4216 0.69C59.1616 0.69 59.8016 0.959999 60.3416 1.5C60.9016 2.04 61.1816 2.68 61.1816 3.42C61.1816 4.16 60.9116 4.8 60.3716 5.34C59.8516 5.86 59.2016 6.12 58.4216 6.12ZM60.8516 8.52V24H55.9916V8.52H60.8516ZM70.7841 23.97C69.8441 23.97 68.9541 23.77 68.1141 23.37C67.2741 22.95 66.5441 22.39 65.9241 21.69C65.3241 20.99 64.8441 20.17 64.4841 19.23C64.1241 18.27 63.9441 17.25 63.9441 16.17C63.9441 15.09 64.1241 14.08 64.4841 13.14C64.8641 12.2 65.3741 11.38 66.0141 10.68C66.6741 9.98 67.4441 9.43 68.3241 9.03C69.2041 8.63 70.1441 8.43 71.1441 8.43C71.9641 8.43 72.7341 8.6 73.4541 8.94C74.1941 9.28 74.8241 9.76 75.3441 10.38V8.52H80.1141V24.21C80.1141 26.29 79.4041 27.89 77.9841 29.01C76.5841 30.13 74.5741 30.69 71.9541 30.69C70.7941 30.69 69.6641 30.57 68.5641 30.33C67.4641 30.09 66.4541 29.75 65.5341 29.31L67.0341 25.8C67.8941 26.2 68.7141 26.5 69.4941 26.7C70.2741 26.9 71.0341 27 71.7741 27C72.9141 27 73.7841 26.76 74.3841 26.28C74.9841 25.8 75.2841 25.09 75.2841 24.15V21.93C74.7841 22.55 74.1341 23.05 73.3341 23.43C72.5341 23.79 71.6841 23.97 70.7841 23.97ZM68.7141 16.2C68.7141 17.28 69.0641 18.19 69.7641 18.93C70.4841 19.65 71.3641 20.01 72.4041 20.01C72.9841 20.01 73.5141 19.91 73.9941 19.71C74.4741 19.49 74.9041 19.18 75.2841 18.78V13.62C74.9041 13.24 74.4641 12.95 73.9641 12.75C73.4841 12.53 72.9641 12.42 72.4041 12.42C71.3441 12.42 70.4641 12.78 69.7641 13.5C69.0641 14.22 68.7141 15.12 68.7141 16.2ZM83.8822 24V8.52H88.7422V11.04C89.3422 10.14 90.0522 9.46 90.8722 9C91.7122 8.52 92.6322 8.28 93.6322 8.28C95.1322 8.28 96.3622 8.78 97.3222 9.78C98.2822 10.76 98.7622 12.02 98.7622 13.56V24H93.9022V14.97C93.9022 14.11 93.6622 13.42 93.1822 12.9C92.7222 12.36 92.1022 12.09 91.3222 12.09C90.8022 12.09 90.3222 12.2 89.8822 12.42C89.4622 12.62 89.0822 12.94 88.7422 13.38V24H83.8822ZM118.657 16.29C118.657 17.37 118.467 18.39 118.087 19.35C117.727 20.29 117.217 21.11 116.557 21.81C115.917 22.51 115.157 23.07 114.277 23.49C113.397 23.89 112.457 24.09 111.457 24.09C110.617 24.09 109.827 23.92 109.087 23.58C108.367 23.22 107.747 22.73 107.227 22.11V24H102.427V2.55L107.287 1.8V10.5C107.787 9.88 108.437 9.38 109.237 9C110.037 8.62 110.897 8.43 111.817 8.43C112.757 8.43 113.647 8.64 114.487 9.06C115.327 9.46 116.047 10.02 116.647 10.74C117.267 11.44 117.757 12.27 118.117 13.23C118.477 14.19 118.657 15.21 118.657 16.29ZM110.197 12.45C109.597 12.45 109.057 12.56 108.577 12.78C108.097 12.98 107.667 13.29 107.287 13.71V18.87C107.667 19.25 108.107 19.55 108.607 19.77C109.107 19.99 109.637 20.1 110.197 20.1C111.257 20.1 112.137 19.74 112.837 19.02C113.537 18.28 113.887 17.36 113.887 16.26C113.887 15.18 113.527 14.28 112.807 13.56C112.107 12.82 111.237 12.45 110.197 12.45Z" fill="#333333"/>
<path d="M123.984 18.63C124.724 18.63 125.354 18.91 125.874 19.47C126.414 20.03 126.684 20.7 126.684 21.48C126.684 22.26 126.414 22.93 125.874 23.49C125.354 24.05 124.724 24.33 123.984 24.33C123.244 24.33 122.604 24.05 122.064 23.49C121.524 22.93 121.254 22.26 121.254 21.48C121.254 20.7 121.524 20.03 122.064 19.47C122.604 18.91 123.244 18.63 123.984 18.63ZM128.735 22.41L130.865 19.17C131.965 19.75 132.885 20.16 133.625 20.4C134.365 20.62 135.105 20.73 135.845 20.73C136.525 20.73 137.065 20.62 137.465 20.4C137.865 20.16 138.065 19.85 138.065 19.47C138.065 19.17 137.945 18.93 137.705 18.75C137.485 18.57 137.125 18.44 136.625 18.36L133.655 17.82C132.155 17.54 131.015 17.02 130.235 16.26C129.475 15.5 129.095 14.52 129.095 13.32C129.095 11.74 129.665 10.5 130.805 9.6C131.965 8.7 133.555 8.25 135.575 8.25C136.655 8.25 137.725 8.4 138.785 8.7C139.845 9 140.875 9.44 141.875 10.02L139.655 13.11C138.875 12.67 138.115 12.34 137.375 12.12C136.655 11.9 135.935 11.79 135.215 11.79C134.635 11.79 134.175 11.89 133.835 12.09C133.515 12.27 133.355 12.53 133.355 12.87C133.355 13.19 133.465 13.43 133.685 13.59C133.925 13.75 134.345 13.88 134.945 13.98L137.855 14.52C139.375 14.8 140.535 15.33 141.335 16.11C142.135 16.87 142.525 17.83 142.505 18.99C142.505 19.75 142.335 20.46 141.995 21.12C141.675 21.76 141.215 22.32 140.615 22.8C140.015 23.26 139.305 23.63 138.485 23.91C137.665 24.17 136.785 24.3 135.845 24.3C134.445 24.3 133.135 24.14 131.915 23.82C130.695 23.5 129.635 23.03 128.735 22.41ZM147.065 19.23V12.27H144.065V8.52H147.065V4.23L151.925 3.24V8.52H156.065V12.27H151.925V18.27C151.925 18.95 152.075 19.43 152.375 19.71C152.695 19.99 153.225 20.13 153.965 20.13C154.245 20.13 154.525 20.11 154.805 20.07C155.085 20.03 155.465 19.94 155.945 19.8V23.73C155.505 23.87 154.965 23.98 154.325 24.06C153.685 24.16 153.115 24.21 152.615 24.21C150.795 24.21 149.415 23.79 148.475 22.95C147.535 22.11 147.065 20.87 147.065 19.23ZM163.505 8.52V17.55C163.505 18.41 163.735 19.11 164.195 19.65C164.675 20.17 165.305 20.43 166.085 20.43C166.605 20.43 167.075 20.33 167.495 20.13C167.935 19.91 168.325 19.58 168.665 19.14V8.52H173.525V24H168.665V21.48C168.065 22.38 167.345 23.07 166.505 23.55C165.685 24.01 164.775 24.24 163.775 24.24C162.275 24.24 161.045 23.75 160.085 22.77C159.125 21.77 158.645 20.5 158.645 18.96V8.52H163.505ZM188.02 24V21.99C187.52 22.63 186.86 23.14 186.04 23.52C185.24 23.9 184.38 24.09 183.46 24.09C182.52 24.09 181.63 23.89 180.79 23.49C179.95 23.07 179.22 22.51 178.6 21.81C178 21.09 177.52 20.25 177.16 19.29C176.8 18.33 176.62 17.31 176.62 16.23C176.62 15.15 176.8 14.14 177.16 13.2C177.54 12.24 178.05 11.41 178.69 10.71C179.35 10.01 180.12 9.46 181 9.06C181.88 8.64 182.82 8.43 183.82 8.43C184.62 8.43 185.38 8.59 186.1 8.91C186.82 9.23 187.44 9.69 187.96 10.29V2.55L192.82 1.8V24H188.02ZM181.39 16.26C181.39 17.34 181.74 18.25 182.44 18.99C183.16 19.71 184.04 20.07 185.08 20.07C185.66 20.07 186.19 19.97 186.67 19.77C187.15 19.55 187.58 19.24 187.96 18.84V13.62C187.58 13.24 187.14 12.95 186.64 12.75C186.16 12.53 185.64 12.42 185.08 12.42C184.02 12.42 183.14 12.79 182.44 13.53C181.74 14.25 181.39 15.16 181.39 16.26ZM199.017 6.12C198.257 6.12 197.607 5.86 197.067 5.34C196.547 4.8 196.287 4.16 196.287 3.42C196.287 2.68 196.557 2.04 197.097 1.5C197.637 0.959999 198.277 0.69 199.017 0.69C199.757 0.69 200.397 0.959999 200.937 1.5C201.497 2.04 201.777 2.68 201.777 3.42C201.777 4.16 201.507 4.8 200.967 5.34C200.447 5.86 199.797 6.12 199.017 6.12ZM201.447 8.52V24H196.587V8.52H201.447ZM204.54 16.29C204.54 15.15 204.74 14.09 205.14 13.11C205.56 12.13 206.13 11.29 206.85 10.59C207.57 9.87 208.42 9.31 209.4 8.91C210.4 8.49 211.47 8.28 212.61 8.28C213.75 8.28 214.82 8.49 215.82 8.91C216.82 9.31 217.68 9.87 218.4 10.59C219.12 11.29 219.68 12.13 220.08 13.11C220.5 14.09 220.71 15.15 220.71 16.29C220.71 17.43 220.5 18.49 220.08 19.47C219.66 20.45 219.09 21.3 218.37 22.02C217.65 22.72 216.79 23.28 215.79 23.7C214.81 24.1 213.75 24.3 212.61 24.3C211.47 24.3 210.4 24.1 209.4 23.7C208.42 23.28 207.57 22.71 206.85 21.99C206.13 21.27 205.56 20.42 205.14 19.44C204.74 18.46 204.54 17.41 204.54 16.29ZM212.61 20.19C213.59 20.19 214.39 19.83 215.01 19.11C215.65 18.37 215.97 17.43 215.97 16.29C215.97 15.15 215.65 14.21 215.01 13.47C214.39 12.71 213.59 12.33 212.61 12.33C211.63 12.33 210.83 12.71 210.21 13.47C209.59 14.21 209.28 15.15 209.28 16.29C209.28 17.43 209.59 18.37 210.21 19.11C210.83 19.83 211.63 20.19 212.61 20.19Z" fill="#EB5757"/>
</svg>
